<svg xmlns="http://www.w3.org/2000/svg" width="64" height="64" viewBox="0 0 64 64">
    <g fill="none" fill-rule="nonzero">
        <path fill="#EF1A8C" d="M32 .179c-8.64 0-9.725.038-13.12.195-2.64.051-5.251.55-7.723 1.475A15.599 15.599 0 0 0 5.52 5.521a15.599 15.599 0 0 0-3.672 5.636A23.322 23.322 0 0 0 .374 18.88C.217 22.275.18 23.36.18 32c0 8.64.038 9.725.195 13.12.051 2.64.55 5.251 1.475 7.723a15.599 15.599 0 0 0 3.672 5.636 15.599 15.599 0 0 0 5.636 3.672 23.322 23.322 0 0 0 7.723 1.475c3.395.157 4.48.195 13.12.195 8.64 0 9.725-.038 13.12-.195 2.64-.051 5.251-.55 7.723-1.475a16.271 16.271 0 0 0 9.308-9.308 23.322 23.322 0 0 0 1.475-7.723c.157-3.395.195-4.48.195-13.12 0-8.64-.038-9.725-.195-13.12a23.322 23.322 0 0 0-1.475-7.723 15.599 15.599 0 0 0-3.672-5.636 15.599 15.599 0 0 0-5.636-3.672A23.322 23.322 0 0 0 45.12.374C41.725.217 40.64.18 32 .18z"/>
        <path fill="#FFF" d="M32 13.89c5.896 0 6.595 0 8.927.13a12.16 12.16 0 0 1 4.09.76 7.344 7.344 0 0 1 4.203 4.203c.488 1.313.745 2.7.76 4.1.108 2.333.13 3.032.13 8.928 0 5.895 0 6.595-.13 8.927a12.16 12.16 0 0 1-.76 4.079 7.344 7.344 0 0 1-4.203 4.203 12.16 12.16 0 0 1-4.1.76c-2.333.108-3.027.13-8.928.13-5.9 0-6.595 0-8.927-.13a12.16 12.16 0 0 1-4.079-.76 7.344 7.344 0 0 1-4.203-4.203 12.16 12.16 0 0 1-.76-4.1c-.108-2.333-.13-3.032-.13-8.928 0-5.895 0-6.595.13-8.927a12.16 12.16 0 0 1 .76-4.079 7.344 7.344 0 0 1 4.203-4.203 12.16 12.16 0 0 1 4.1-.76c2.333-.108 3.032-.13 8.928-.13H32zm.01-3.948c-5.965 0-6.74.027-9.095.135-1.83.036-3.64.383-5.353 1.025a11.281 11.281 0 0 0-6.46 6.45 16.157 16.157 0 0 0-1.025 5.352c-.108 2.354-.135 3.108-.135 9.096 0 5.988.027 6.742.135 9.096.036 1.83.383 3.64 1.025 5.353a11.281 11.281 0 0 0 6.45 6.449c1.713.642 3.523.989 5.352 1.025 2.354.108 3.108.135 9.096.135 5.988 0 6.742 0 9.096-.135 1.83-.036 3.64-.383 5.353-1.025a11.281 11.281 0 0 0 6.449-6.45 16.157 16.157 0 0 0 1.025-5.352c.108-2.354.135-3.108.135-9.096 0-5.988 0-6.742-.135-9.096a16.157 16.157 0 0 0-1.025-5.353 11.281 11.281 0 0 0-6.45-6.449 16.157 16.157 0 0 0-5.352-1.025c-2.354-.108-3.108-.135-9.096-.135h.01z"/>
        <path fill="#FFF" d="M32 20.68c-6.251 0-11.32 5.069-11.32 11.32S25.75 43.32 32 43.32 43.32 38.25 43.32 32 38.25 20.68 32 20.68zm0 18.69a7.37 7.37 0 1 1 0-14.74 7.37 7.37 0 0 1 0 14.74zM46.395 20.247a2.641 2.641 0 1 1-5.283 0 2.641 2.641 0 0 1 5.283 0z"/>
    </g>
</svg>
