<svg xmlns="http://www.w3.org/2000/svg" width="64" height="64" viewBox="0 0 64 64">
    <g fill="none" fill-rule="nonzero">
        <path fill="#FAAB62" d="M63.902 54.552c0 5.165-4.165 9.352-9.303 9.352H9.303C4.165 63.904 0 59.717 0 54.552v-45.2C0 4.186 4.165 0 9.303 0H54.6c5.138 0 9.303 4.187 9.303 9.351v45.201z"/>
        <path fill="#F7931E" d="M63.574 54.32c0 5.112-4.123 9.256-9.208 9.256H9.536c-5.085 0-9.208-4.144-9.208-9.256V9.584C.328 4.472 4.451.328 9.536.328h44.83c5.085 0 9.208 4.144 9.208 9.256V54.32z"/>
        <path fill="#FFF" d="M31.915 9.55c-6.333 0-11.467 5.161-11.467 11.527s5.134 11.527 11.467 11.527c6.334 0 11.468-5.161 11.468-11.527S38.249 9.55 31.915 9.55zm0 16.292c-2.617 0-4.74-2.133-4.74-4.765 0-2.631 2.123-4.765 4.74-4.765 2.618 0 4.74 2.134 4.74 4.765 0 2.632-2.122 4.765-4.74 4.765z"/>
        <g fill="#FFF">
            <path d="M35.964 41.775c4.59-.94 7.342-3.125 7.487-3.242a3.145 3.145 0 0 0 .482-4.406 3.107 3.107 0 0 0-4.383-.485c-.028.023-2.963 2.286-7.79 2.29-4.828-.004-7.824-2.267-7.852-2.29a3.107 3.107 0 0 0-4.383.485 3.145 3.145 0 0 0 .481 4.406c.148.119 3.013 2.36 7.732 3.279L21.16 48.72a3.145 3.145 0 0 0 .08 4.431 3.099 3.099 0 0 0 2.164.878 3.1 3.1 0 0 0 2.245-.958l6.11-6.543 6.727 6.585a3.106 3.106 0 0 0 4.41-.003 3.145 3.145 0 0 0-.004-4.433l-6.93-6.903zM31.76 35.931c-.008 0 .007 0 0 0-.008 0 .007 0 0 0z"/>
        </g>
    </g>
</svg>
